Explanation of Functions
…
Introduction

This document explains how the functions in the package are used. The first function gives plots and statistics to determine whether a given linear model satisfies the regression assumptions. The second, performs a bootstrap in order to calculate regression coefficients and confidence intervals and compares this to the classical version. The third function performs regression using Bayesian methods. Along with diagnostic plots to make sure that the MCMC process converges, it also compares the Bayesian approach to the classical one. The fourth, and final, function really just calls a Shiny web app. Since the RMD cannot fully knit while it also opens the app, another RMD file called Driver_Shiny was made in order to run this on your RMD. You can also just go to the app.R file in the inst/shiny directory and run it there as well, or simply type shinyddt() in the commandline.

Lets begin by looking at the dataset that we will use to demonstrate the functions. This is the QUASAR.xls file. In alL the functions, we use the model that \[
E[RFEWIDTH] = \beta_{0}+\beta_{1}LINEFLUX+\beta_{2}AB1450
\]

library(readxl)
source("ModelCheck.r")
quasar = read_excel("QUASAR.XLS")
quasar

## # A tibble: 25 x 7
##    QUASAR REDSHIFT LINEFLUX LUMINOSITY AB1450 ABSMAG RFEWIDTH
##     <dbl>    <dbl>    <dbl>      <dbl>  <dbl>  <dbl>    <dbl>
##  1      1     2.81    -13.5       45.3   19.5  -26.3      117
##  2      2     3.07    -13.7       45.1   19.6  -26.3       82
##  3      3     3.45    -13.9       45.1   18.9  -27.2       33
##  4      4     3.19    -13.3       45.6   18.6  -27.4       92
##  5      5     3.07    -13.6       45.3   19.6  -26.3      114
##  6      6     4.15    -14.0       45.2   19.4  -27.0       50
##  7      7     3.26    -13.8       45.1   19.2  -26.8       43
##  8      8     2.81    -13.5       45.3   20.4  -25.4      259
##  9      9     3.83    -13.7       45.4   18.9  -27.3       58
## 10     10     3.32    -13.7       45.2   20    -26.0      126
## # ... with 15 more rows
…
